<?xml version="1.0" encoding="UTF-8"?>
<testsuite name="com.diego.server.DemoApplicationTests" tests="1" skipped="0" failures="0" errors="0" timestamp="2016-06-06T13:33:28" hostname="DESKTOP-OSSJ5N9" time="0.0">
  <properties/>
  <testcase name="contextLoads" classname="com.diego.server.DemoApplicationTests" time="0.0"/>
  <system-out><![CDATA[15:33:18.066 [Test worker] DEBUG org.springframework.test.context.junit4.SpringJUnit4ClassRunner - SpringJUnit4ClassRunner constructor called with [class com.diego.server.DemoApplicationTests]
15:33:18.092 [Test worker] DEBUG org.springframework.test.context.BootstrapUtils - Instantiating CacheAwareContextLoaderDelegate from class [org.springframework.test.context.cache.DefaultCacheAwareContextLoaderDelegate]
15:33:18.100 [Test worker] DEBUG org.springframework.test.context.BootstrapUtils - Instantiating BootstrapContext using constructor [public org.springframework.test.context.support.DefaultBootstrapContext(java.lang.Class,org.springframework.test.context.CacheAwareContextLoaderDelegate)]
15:33:18.139 [Test worker] DEBUG org.springframework.test.context.BootstrapUtils - Instantiating TestContextBootstrapper for test class [com.diego.server.DemoApplicationTests] from class [org.springframework.test.context.web.WebTestContextBootstrapper]
15:33:18.174 [Test worker] DEBUG org.springframework.test.context.web.WebTestContextBootstrapper - Found explicit ContextLoader class [org.springframework.boot.test.SpringApplicationContextLoader] for context configuration attributes [ContextConfigurationAttributes@d0b105f declaringClass = 'com.diego.server.DemoApplicationTests', classes = '{class com.diego.server.MainServer}', locations = '{}', inheritLocations = true, initializers = '{}', inheritInitializers = true, name = [null], contextLoaderClass = 'org.springframework.boot.test.SpringApplicationContextLoader']
15:33:18.195 [Test worker] DEBUG org.springframework.test.context.support.AbstractContextLoader - Did not detect default resource location for test class [com.diego.server.DemoApplicationTests]: class path resource [com/diego/server/DemoApplicationTests-context.xml] does not exist
15:33:18.196 [Test worker] DEBUG org.springframework.test.context.support.AbstractContextLoader - Did not detect default resource location for test class [com.diego.server.DemoApplicationTests]: class path resource [com/diego/server/DemoApplicationTestsContext.groovy] does not exist
15:33:18.197 [Test worker] INFO org.springframework.test.context.support.AbstractContextLoader - Could not detect default resource locations for test class [com.diego.server.DemoApplicationTests]: no resource found for suffixes {-context.xml, Context.groovy}.
15:33:18.200 [Test worker] DEBUG org.springframework.test.context.support.ActiveProfilesUtils - Could not find an 'annotation declaring class' for annotation type [org.springframework.test.context.ActiveProfiles] and class [com.diego.server.DemoApplicationTests]
15:33:18.204 [Test worker] DEBUG org.springframework.test.context.web.WebTestContextBootstrapper - @TestExecutionListeners is not present for class [com.diego.server.DemoApplicationTests]: using defaults.
15:33:18.204 [Test worker] INFO org.springframework.test.context.web.WebTestContextBootstrapper - Loaded default TestExecutionListener class names from location [META-INF/spring.factories]: [org.springframework.test.context.web.ServletTestExecutionListener, org.springframework.test.context.support.DirtiesContextBeforeModesTestExecutionListener, org.springframework.test.context.support.DependencyInjectionTestExecutionListener, org.springframework.test.context.support.DirtiesContextTestExecutionListener, org.springframework.test.context.transaction.TransactionalTestExecutionListener, org.springframework.test.context.jdbc.SqlScriptsTestExecutionListener]
15:33:18.251 [Test worker] INFO org.springframework.test.context.web.WebTestContextBootstrapper - Using TestExecutionListeners: [org.springframework.test.context.web.ServletTestExecutionListener@166dc905, org.springframework.test.context.support.DirtiesContextBeforeModesTestExecutionListener@57a013ad, org.springframework.test.context.support.DependencyInjectionTestExecutionListener@e7d224b, org.springframework.test.context.support.DirtiesContextTestExecutionListener@121ac8ff, org.springframework.test.context.transaction.TransactionalTestExecutionListener@6ac71e58, org.springframework.test.context.jdbc.SqlScriptsTestExecutionListener@3d2d55d6]
15:33:18.251 [Test worker] DEBUG org.springframework.test.annotation.ProfileValueUtils - Retrieved @ProfileValueSourceConfiguration [null] for test class [com.diego.server.DemoApplicationTests]
15:33:18.251 [Test worker] DEBUG org.springframework.test.annotation.ProfileValueUtils - Retrieved ProfileValueSource type [class org.springframework.test.annotation.SystemProfileValueSource] for class [com.diego.server.DemoApplicationTests]
15:33:18.251 [Test worker] DEBUG org.springframework.test.annotation.ProfileValueUtils - Retrieved @ProfileValueSourceConfiguration [null] for test class [com.diego.server.DemoApplicationTests]
15:33:18.251 [Test worker] DEBUG org.springframework.test.annotation.ProfileValueUtils - Retrieved ProfileValueSource type [class org.springframework.test.annotation.SystemProfileValueSource] for class [com.diego.server.DemoApplicationTests]
15:33:18.267 [Test worker] DEBUG org.springframework.test.context.support.AbstractDirtiesContextTestExecutionListener - Before test class: context [DefaultTestContext@2a82ba87 testClass = DemoApplicationTests, testInstance = [null], testMethod = [null], testException = [null], mergedContextConfiguration = [WebMergedContextConfiguration@3a578f48 testClass = DemoApplicationTests, locations = '{}', classes = '{class com.diego.server.MainServer}', contextInitializerClasses = '[]', activeProfiles = '{}', propertySourceLocations = '{}', propertySourceProperties = '{}', resourceBasePath = 'src/main/webapp', contextLoader = 'org.springframework.boot.test.SpringApplicationContextLoader', parent = [null]]], class annotated with @DirtiesContext [false] with mode [null].
15:33:18.267 [Test worker] DEBUG org.springframework.test.annotation.ProfileValueUtils - Retrieved @ProfileValueSourceConfiguration [null] for test class [com.diego.server.DemoApplicationTests]
15:33:18.267 [Test worker] DEBUG org.springframework.test.annotation.ProfileValueUtils - Retrieved ProfileValueSource type [class org.springframework.test.annotation.SystemProfileValueSource] for class [com.diego.server.DemoApplicationTests]
15:33:18.575 [Test worker] DEBUG org.springframework.core.env.StandardEnvironment - Adding [systemProperties] PropertySource with lowest search precedence
15:33:18.575 [Test worker] DEBUG org.springframework.core.env.StandardEnvironment - Adding [systemEnvironment] PropertySource with lowest search precedence
15:33:18.575 [Test worker] DEBUG org.springframework.core.env.StandardEnvironment - Initialized StandardEnvironment with PropertySources [systemProperties,systemEnvironment]
15:33:18.575 [Test worker] DEBUG org.springframework.core.env.StandardEnvironment - Adding [integrationTest] PropertySource with search precedence immediately lower than [systemEnvironment]

  .   ____          _            __ _ _
 /\\ / ___'_ __ _ _(_)_ __  __ _ \ \ \ \
( ( )\___ | '_ | '_| | '_ \/ _` | \ \ \ \
 \\/  ___)| |_)| | | | | || (_| |  ) ) ) )
  '  |____| .__|_| |_|_| |_\__, | / / / /
 =========|_|==============|___/=/_/_/_/
 :: Spring Boot ::        (v1.3.5.RELEASE)

2016-06-06 15:33:19.175  INFO 5152 --- [    Test worker] com.diego.server.DemoApplicationTests    : Starting DemoApplicationTests on DESKTOP-OSSJ5N9 with PID 5152 (C:\Users\dos_6\OneDrive\DAM\Dispositivos\Android\SpringServer\Server\build\classes\test started by dos_6 in C:\Users\dos_6\OneDrive\DAM\Dispositivos\Android\SpringServer\Server)
2016-06-06 15:33:19.191  INFO 5152 --- [    Test worker] com.diego.server.DemoApplicationTests    : No active profile set, falling back to default profiles: default
2016-06-06 15:33:19.375  INFO 5152 --- [    Test worker] o.s.w.c.s.GenericWebApplicationContext   : Refreshing org.springframework.web.context.support.GenericWebApplicationContext@1e725fb1: startup date [Mon Jun 06 15:33:19 CEST 2016]; root of context hierarchy
2016-06-06 15:33:22.437  INFO 5152 --- [    Test worker] trationDelegate$BeanPostProcessorChecker : Bean 'org.springframework.transaction.annotation.ProxyTransactionManagementConfiguration' of type [class org.springframework.transaction.annotation.ProxyTransactionManagementConfiguration$$EnhancerBySpringCGLIB$$1036cbf4] is not eligible for getting processed by all BeanPostProcessors (for example: not eligible for auto-proxying)
2016-06-06 15:33:23.560  INFO 5152 --- [    Test worker] j.LocalContainerEntityManagerFactoryBean : Building JPA container EntityManagerFactory for persistence unit 'default'
2016-06-06 15:33:23.618  INFO 5152 --- [    Test worker] o.hibernate.jpa.internal.util.LogHelper  : HHH000204: Processing PersistenceUnitInfo [
	name: default
	...]
2016-06-06 15:33:23.795  INFO 5152 --- [    Test worker] org.hibernate.Version                    : HHH000412: Hibernate Core {4.3.11.Final}
2016-06-06 15:33:23.811  INFO 5152 --- [    Test worker] org.hibernate.cfg.Environment            : HHH000206: hibernate.properties not found
2016-06-06 15:33:23.811  INFO 5152 --- [    Test worker] org.hibernate.cfg.Environment            : HHH000021: Bytecode provider name : javassist
2016-06-06 15:33:24.038  INFO 5152 --- [    Test worker] o.hibernate.annotations.common.Version   : HCANN000001: Hibernate Commons Annotations {4.0.5.Final}
2016-06-06 15:33:24.669  INFO 5152 --- [    Test worker] org.hibernate.dialect.Dialect            : HHH000400: Using dialect: org.hibernate.dialect.MySQL5Dialect
2016-06-06 15:33:24.880  INFO 5152 --- [    Test worker] o.h.h.i.ast.ASTQueryTranslatorFactory    : HHH000397: Using ASTQueryTranslatorFactory
2016-06-06 15:33:27.763  INFO 5152 --- [    Test worker] s.w.s.m.m.a.RequestMappingHandlerAdapter : Looking for @ControllerAdvice: org.springframework.web.context.support.GenericWebApplicationContext@1e725fb1: startup date [Mon Jun 06 15:33:19 CEST 2016]; root of context hierarchy
2016-06-06 15:33:27.944  INFO 5152 --- [    Test worker] s.w.s.m.m.a.RequestMappingHandlerMapping : Mapped "{[/add_email]}" onto public void com.diego.server.EmailController.addEmail(java.lang.String)
2016-06-06 15:33:27.944  INFO 5152 --- [    Test worker] s.w.s.m.m.a.RequestMappingHandlerMapping : Mapped "{[/error]}" onto public org.springframework.http.ResponseEntity<java.util.Map<java.lang.String, java.lang.Object>> org.springframework.boot.autoconfigure.web.BasicErrorController.error(javax.servlet.http.HttpServletRequest)
2016-06-06 15:33:27.944  INFO 5152 --- [    Test worker] s.w.s.m.m.a.RequestMappingHandlerMapping : Mapped "{[/error],produces=[text/html]}" onto public org.springframework.web.servlet.ModelAndView org.springframework.boot.autoconfigure.web.BasicErrorController.errorHtml(javax.servlet.http.HttpServletRequest,javax.servlet.http.HttpServletResponse)
2016-06-06 15:33:28.007  INFO 5152 --- [    Test worker] o.s.w.s.handler.SimpleUrlHandlerMapping  : Mapped URL path [/webjars/**] onto handler of type [class org.springframework.web.servlet.resource.ResourceHttpRequestHandler]
2016-06-06 15:33:28.007  INFO 5152 --- [    Test worker] o.s.w.s.handler.SimpleUrlHandlerMapping  : Mapped URL path [/**] onto handler of type [class org.springframework.web.servlet.resource.ResourceHttpRequestHandler]
2016-06-06 15:33:28.069  INFO 5152 --- [    Test worker] o.s.w.s.handler.SimpleUrlHandlerMapping  : Mapped URL path [/**/favicon.ico] onto handler of type [class org.springframework.web.servlet.resource.ResourceHttpRequestHandler]
2016-06-06 15:33:28.407  INFO 5152 --- [    Test worker] com.diego.server.DemoApplicationTests    : Started DemoApplicationTests in 9.816 seconds (JVM running for 13.84)
]]></system-out>
  <system-err><![CDATA[]]></system-err>
</testsuite>
